<svg xmlns="http://www.w3.org/2000/svg" viewBox="0 0 32 32">
    <path
        d="M5.902 27.963L3.212 0h25.576l-2.693 27.942L16.02 32l-10.117-4.037zM16.05 29.131l8.172-2.367 2.303-25.787H5.585l2.315 25.795 8.15 2.359zm6.615-12.69l-.317 3.468-6.26 2.102-.02.006-.02-.006-6.263-2.102-.413-4.615h2.563l.21 2.342 3.92 1.194 3.914-1.194.413-4.626H9.718l-.27-3.045h12.177l-.27 3.045H9.338l-.27-3.043H22.7l-.35 3.968H9.101z"/>
</svg>
